Date,Start,End,Subject,Note
1/11/14,20.12,20.35,Math,
1/11/14,21.02,21.49,Math,
2/11/14,7.15,7.28,Math,
2/11/14,12.11,12.31,Math,
04/11/14,17.12,18,Math,
07/11/14,20.30.,23.15,Math,
08/11/14,20.30.,23.15,Math,
09/11/14,13.30.,17.15,Math,
10/11/14,13.30.,17.30.,Math,